8 00000000000000000000000000000000
9 00000000000000000000000010010011
10 00000000000000000000000000111000
11 00000000000000000000000000000000
12 00000000000000000000000000000000
13 00000000000000000000000000000000
14 00000000000000000000000000000000
15 00000000000000000000000000000000
16 00000000000000000000000000000000
17 00000000000000000000000000000000
18 00000000000000000000000000000000
19 00000000000000000000000000000000
20 00000000000000000000000000000000
21 00000000000000000000000000000000
22 00000000000000000000000000000000
23 00000000000000000000000000000000
